<?xml version="1.0" encoding="utf-8"?>
<!-- Generator: Adobe Illustrator 21.0.2, SVG Export Plug-In . SVG Version: 6.00 Build 0)  -->
<svg version="1.1" id="Layer_1" xmlns="http://www.w3.org/2000/svg" xmlns:xlink="http://www.w3.org/1999/xlink" x="0px" y="0px"
	 viewBox="0 0 288 108" style="enable-background:new 0 0 288 108;" xml:space="preserve">
<style type="text/css">
	.st0{opacity:0.15;}
	.st1{opacity:0.6;}
	.st2{fill:none;stroke:#F7A800;stroke-width:0.8532;stroke-linecap:round;stroke-linejoin:round;stroke-miterlimit:10;}
	.st3{fill:#F7A800;}
	.st4{fill:#085156;}
	.st5{fill:#4D868E;}
	.st6{fill:#FFC843;}
	.st7{fill:#FF9012;}
	.st8{opacity:0.4;}
	.st9{fill:none;stroke:#4D868E;stroke-width:0.8532;stroke-linecap:round;stroke-linejoin:round;stroke-miterlimit:10;}
	.st10{fill:#FFFFFF;}
	.st11{fill:#1C1B1C;}
</style>
<path class="st3" d="M221.3,88c-0.2,0-0.3,0-0.5-0.1c-0.5-0.2-0.8-0.6-0.8-1.1v-9.1h-9c-0.7,0-1.2-0.6-1.2-1.2V41
	c0-0.4,0.2-0.8,0.6-1L242.1,20c0.4-0.3,0.9-0.3,1.3,0l31.5,19.9c0.4,0.2,0.6,0.6,0.6,1v35.5c0,0.7-0.6,1.2-1.2,1.2h-42l-10.1,10
	C221.9,87.9,221.6,88,221.3,88z M212.3,75.2h9c0.7,0,1.2,0.6,1.2,1.2v7.4l8.4-8.2c0.2-0.2,0.5-0.4,0.9-0.4H273V41.7l-30.3-19.1
	l-30.4,19.1V75.2z"/>
<g>
	<g>
		<path class="st4" d="M12.5,58.2c0-8.9,5.5-13.5,13.6-13.5c3.7,0,7.1,0.9,9.3,1.7V55h-5.6v-4.9c-0.9-0.2-2-0.4-3-0.4
			c-4.9,0-7.4,3.1-7.4,8.2c0,5,2.3,8.3,7.6,8.3c3,0,5.9-1.1,8.1-2.2v5.2c-2.4,1.4-5.8,2.1-9.1,2.1C17.6,71.4,12.5,66.8,12.5,58.2z"
			/>
		<path class="st4" d="M40.8,58.1c0-7.9,4.9-13.3,13.5-13.3s13.5,5.5,13.5,13.3S63,71.4,54.3,71.4S40.8,66,40.8,58.1z M60.9,58.1
			c0-4.6-2-8.3-6.6-8.3c-4.6,0-6.6,3.7-6.6,8.3s2,8.3,6.6,8.3C58.9,66.4,60.9,62.7,60.9,58.1z"/>
		<path class="st4" d="M72.7,65.6h3.9v-15h-3.9v-5.2h10.4v3.2c2.5-2,5.6-3.8,9.5-3.8c4.7,0,7.7,2.6,7.7,7.9v13h3.9v5.2H89.6v-5.2
			h3.9V53.3c0-2.1-0.8-3.3-3.1-3.3c-2.6,0-5.1,1.4-7.1,2.9v12.7h3.9v5.2H72.7V65.6z"/>
		<path class="st4" d="M109.3,70v-7.2h5.3V66c1.1,0.3,3.2,0.6,4.7,0.6c3,0,4.2-1.2,4.2-2.5c0-4.5-14.1-2-14.1-11.5
			c0-4.6,3.3-7.9,10.3-7.9c3.5,0,7.2,0.8,9.1,1.4v7.2h-5.4v-3.5c-1.1-0.2-2.7-0.4-3.6-0.4c-3,0-4,1.2-4,2.4
			c0,4.9,14.1,1.9,14.1,11.7c0,3.8-2,7.8-10.6,7.8C115.7,71.4,111.5,70.7,109.3,70z"/>
		<path class="st4" d="M138.4,63.6v-13h-4v-5.2h10.7v17.5c0,2.1,0.8,3.3,3.1,3.3c2.6,0,5.1-1.4,7.1-2.9V50.6h-4.4v-5.2h11.2v20.2
			h3.9v5.2h-10.4v-3.1c-2.5,2-5.6,3.8-9.5,3.8C141.4,71.4,138.4,68.8,138.4,63.6z"/>
		<path class="st4" d="M170.8,65.6h3.9V34.5h-3.9v-5.2h10.6v36.4h3.9v5.2h-14.5V65.6z"/>
		<path class="st4" d="M192.2,63.8V50.6h-4.4v-5.2h4.4V39h6.7v6.5h7v5.2h-7v12.8c0,2.4,1.4,2.9,3.4,2.9c1.5,0,3-0.3,4-0.6v4.9
			c-1.5,0.4-3.6,0.9-6.1,0.9C193.9,71.4,192.2,68.4,192.2,63.8z"/>
	</g>
</g>
<g>
	<g>
		<path class="st4" d="M216.9,62.9l2.3-12.4H215l0.9-5.3h10.8l-3.1,17.2c-0.4,2.3,0.2,3.8,2.4,3.8c2.6,0,5.5-2.2,7.8-4.3l3-16.6h6.7
			L240,64.1c-0.4,2,0.4,2.7,2,2.7c0.8,0,1.8-0.2,2.6-0.5l-0.8,4.6c-1.1,0.3-2.7,0.6-4.3,0.6c-4,0-5.8-1.8-6.3-4.5
			c-2.5,2.3-6,4.5-9.8,4.5C219,71.5,215.9,68.3,216.9,62.9z"/>
		<path class="st4" d="M248.6,69.7l0.8-4.9c2.4,1,5.4,1.8,8.2,1.8c3.6,0,4.7-1.4,4.7-2.7c0-4.2-11.5-2.7-11.5-11
			c0-4.5,3.4-8.4,10.7-8.4c3.1,0,5.9,0.7,8.1,1.5l-0.8,4.7c-1.8-0.7-4.4-1.4-6.9-1.4c-3.4,0-4.4,1.3-4.4,2.5
			c0,4.1,11.5,2.6,11.5,11.1c0,3.3-1.7,8.5-11.3,8.5C254.2,71.5,251.2,70.8,248.6,69.7z"/>
	</g>
</g>
</svg>
